<define-tag pagetitle>DSA-4951-1 bluez</define-tag>
<define-tag report_date>2021-8-07</define-tag>
<define-tag secrefs>CVE-2020-26558 CVE-2020-27153 CVE-2021-0129 Bug#989614</define-tag>
<define-tag packages>bluez</define-tag>
<define-tag isvulnerable>yes</define-tag>
<define-tag fixed>yes</define-tag>
<define-tag fixed-section>no</define-tag>

#use wml::debian::security



</dl>
