<define-tag pagetitle>DSA-4860-1 openldap</define-tag>
<define-tag report_date>2021-2-20</define-tag>
<define-tag secrefs>CVE-2021-27212</define-tag>
<define-tag packages>openldap</define-tag>
<define-tag isvulnerable>yes</define-tag>
<define-tag fixed>yes</define-tag>
<define-tag fixed-section>no</define-tag>

#use wml::debian::security



</dl>
