<define-tag pagetitle>DSA-5000-1 openjdk-11</define-tag>
<define-tag report_date>2021-11-01</define-tag>
<define-tag secrefs>CVE-2021-35550 CVE-2021-35556 CVE-2021-35559 CVE-2021-35561 CVE-2021-35564 CVE-2021-35565 CVE-2021-35567 CVE-2021-35578 CVE-2021-35586 CVE-2021-35603</define-tag>
<define-tag packages>openjdk-11</define-tag>
<define-tag isvulnerable>yes</define-tag>
<define-tag fixed>yes</define-tag>
<define-tag fixed-section>no</define-tag>

#use wml::debian::security



</dl>
