<define-tag pagetitle>DSA-4998-1 ffmpeg</define-tag>
<define-tag report_date>2021-10-31</define-tag>
<define-tag secrefs>CVE-2020-20446 CVE-2020-20450 CVE-2020-20453 CVE-2020-22037 CVE-2020-22042 CVE-2021-38114 CVE-2021-38171 CVE-2021-38291 CVE-2020-21697 CVE-2020-21688 CVE-2020-20445</define-tag>
<define-tag packages>ffmpeg</define-tag>
<define-tag isvulnerable>yes</define-tag>
<define-tag fixed>yes</define-tag>
<define-tag fixed-section>no</define-tag>

#use wml::debian::security



</dl>
