<define-tag pagetitle>DLA-2603-1 libmediainfo</define-tag>
<define-tag report_date>2021-03-23</define-tag>
<define-tag secrefs>CVE-2019-11372 CVE-2019-11373 CVE-2020-15395 CVE-2020-26797</define-tag>
<define-tag packages>libmediainfo</define-tag>
<define-tag isvulnerable>yes</define-tag>
<define-tag fixed>yes</define-tag>
<define-tag fixed-section>no</define-tag>

#use wml::debian::security
