<define-tag pagetitle>DLA-2697-1 fluidsynth</define-tag>
<define-tag report_date>2021-6-29</define-tag>
<define-tag secrefs>CVE-2021-28421</define-tag>
<define-tag packages>fluidsynth</define-tag>
<define-tag isvulnerable>yes</define-tag>
<define-tag fixed>yes</define-tag>
<define-tag fixed-section>no</define-tag>

#use wml::debian::security

