<define-tag pagetitle>DLA-2625-1 courier-authlib</define-tag>
<define-tag report_date>2021-04-14</define-tag>
<define-tag secrefs>CVE-2021-28374 Bug#984810</define-tag>
<define-tag packages>courier-authlib</define-tag>
<define-tag isvulnerable>yes</define-tag>
<define-tag fixed>yes</define-tag>
<define-tag fixed-section>no</define-tag>

#use wml::debian::security

