<define-tag pagetitle>DLA-2824-1 firebird3.0</define-tag>
<define-tag report_date>2021-11-20</define-tag>
<define-tag secrefs>CVE-2017-11509</define-tag>
<define-tag packages>firebird3.0</define-tag>
<define-tag isvulnerable>yes</define-tag>
<define-tag fixed>yes</define-tag>
<define-tag fixed-section>no</define-tag>

#use wml::debian::security

