<define-tag pagetitle>DLA-898-1 libosip2</define-tag>
<define-tag report_date>2017-4-16</define-tag>
<define-tag secrefs>CVE-2016-10324 CVE-2016-10325 CVE-2016-10326 CVE-2017-7853</define-tag>
<define-tag packages>libosip2</define-tag>
<define-tag isvulnerable>yes</define-tag>
<define-tag fixed>yes</define-tag>
<define-tag fixed-section>no</define-tag>

#use wml::debian::security

