<define-tag pagetitle>DLA-1189-1 python2.7</define-tag>
<define-tag report_date>2017-11-24</define-tag>
<define-tag secrefs>CVE-2017-1000158</define-tag>
<define-tag packages>python2.7</define-tag>
<define-tag isvulnerable>yes</define-tag>
<define-tag fixed>yes</define-tag>
<define-tag fixed-section>no</define-tag>

#use wml::debian::security

