<define-tag pagetitle>DLA-773-1 python-crypto</define-tag>
<define-tag report_date>2017-1-1</define-tag>
<define-tag secrefs>CVE-2013-7459 Bug#849495</define-tag>
<define-tag packages>python-crypto</define-tag>
<define-tag isvulnerable>yes</define-tag>
<define-tag fixed>yes</define-tag>
<define-tag fixed-section>no</define-tag>

#use wml::debian::security

