<define-tag pagetitle>DLA-896-1 icedove</define-tag>
<define-tag report_date>2017-4-19</define-tag>
<define-tag secrefs>CVE-2017-5373 CVE-2017-5375 CVE-2017-5376 CVE-2017-5378 CVE-2017-5380 CVE-2017-5383 CVE-2017-5390 CVE-2017-5396 CVE-2017-5398 CVE-2017-5400 CVE-2017-5401 CVE-2017-5402 CVE-2017-5404 CVE-2017-5405 CVE-2017-5407 CVE-2017-5408 CVE-2017-5410</define-tag>
<define-tag packages>icedove</define-tag>
<define-tag isvulnerable>yes</define-tag>
<define-tag fixed>yes</define-tag>
<define-tag fixed-section>no</define-tag>

#use wml::debian::security

