<define-tag pagetitle>DLA-2300-1 kdepim-runtime</define-tag>
<define-tag report_date>2020-07-30</define-tag>
<define-tag secrefs>CVE-2020-15954</define-tag>
<define-tag packages>kdepim-runtime</define-tag>
<define-tag isvulnerable>yes</define-tag>
<define-tag fixed>yes</define-tag>
<define-tag fixed-section>no</define-tag>

#use wml::debian::security
