<define-tag pagetitle>DLA-2357-1 ros-actionlib</define-tag>
<define-tag report_date>2020-08-30</define-tag>
<define-tag secrefs>CVE-2020-10289</define-tag>
<define-tag packages>ros-actionlib</define-tag>
<define-tag isvulnerable>yes</define-tag>
<define-tag fixed>yes</define-tag>
<define-tag fixed-section>no</define-tag>

#use wml::debian::security

