<define-tag pagetitle>DLA-2505-1 spip</define-tag>
<define-tag report_date>2020-12-28</define-tag>
<define-tag secrefs>CVE-2020-28984</define-tag>
<define-tag packages>spip</define-tag>
<define-tag isvulnerable>yes</define-tag>
<define-tag fixed>yes</define-tag>
<define-tag fixed-section>no</define-tag>

#use wml::debian::security

