<define-tag pagetitle>DLA-2255-1 libtasn1-6</define-tag>
<define-tag report_date>2020-6-28</define-tag>
<define-tag secrefs>CVE-2017-10790</define-tag>
<define-tag packages>libtasn1-6</define-tag>
<define-tag isvulnerable>yes</define-tag>
<define-tag fixed>yes</define-tag>
<define-tag fixed-section>no</define-tag>

#use wml::debian::security

