<define-tag pagetitle>DLA-1581-1 uriparser</define-tag>
<define-tag report_date>2018-11-20</define-tag>
<define-tag secrefs>CVE-2018-19198 CVE-2018-19199 CVE-2018-19200</define-tag>
<define-tag packages>uriparser</define-tag>
<define-tag isvulnerable>yes</define-tag>
<define-tag fixed>yes</define-tag>
<define-tag fixed-section>no</define-tag>

#use wml::debian::security

