<define-tag pagetitle>DLA-1349-1 linux-tools</define-tag>
<define-tag report_date>2018-4-16</define-tag>
<define-tag secrefs>Bug#693667 Bug#696957 Bug#708994</define-tag>
<define-tag packages>linux-tools</define-tag>
<define-tag isvulnerable>yes</define-tag>
<define-tag fixed>yes</define-tag>
<define-tag fixed-section>no</define-tag>

#use wml::debian::security

