<define-tag pagetitle>DLA-1320-1 samba</define-tag>
<define-tag report_date>2018-3-27</define-tag>
<define-tag secrefs>CVE-2018-1050</define-tag>
<define-tag packages>samba</define-tag>
<define-tag isvulnerable>yes</define-tag>
<define-tag fixed>yes</define-tag>
<define-tag fixed-section>no</define-tag>

#use wml::debian::security

