<define-tag pagetitle>DLA-1238-1 awstats</define-tag>
<define-tag report_date>2018-1-10</define-tag>
<define-tag secrefs>CVE-2017-1000501 Bug#885835</define-tag>
<define-tag packages>awstats</define-tag>
<define-tag isvulnerable>yes</define-tag>
<define-tag fixed>yes</define-tag>
<define-tag fixed-section>no</define-tag>

#use wml::debian::security

