<define-tag pagetitle>DSA-4579-1 nss</define-tag>
<define-tag report_date>2019-12-06</define-tag>
<define-tag secrefs>CVE-2019-11745 CVE-2019-17007</define-tag>
<define-tag packages>nss</define-tag>
<define-tag isvulnerable>yes</define-tag>
<define-tag fixed>yes</define-tag>
<define-tag fixed-section>no</define-tag>

#use wml::debian::security



</dl>
