<define-tag pagetitle>DLA-1959-1 xtrlock</define-tag>
<define-tag report_date>2019-10-14</define-tag>
<define-tag secrefs>CVE-2016-10894</define-tag>
<define-tag packages>xtrlock</define-tag>
<define-tag isvulnerable>yes</define-tag>
<define-tag fixed>yes</define-tag>
<define-tag fixed-section>no</define-tag>

#use wml::debian::security
