<define-tag pagetitle>DLA-1937-1 httpie</define-tag>
<define-tag report_date>2019-09-30</define-tag>
<define-tag secrefs>CVE-2019-10751 Bug#940058</define-tag>
<define-tag packages>httpie</define-tag>
<define-tag isvulnerable>yes</define-tag>
<define-tag fixed>yes</define-tag>
<define-tag fixed-section>no</define-tag>

#use wml::debian::security

