<define-tag pagetitle>DLA-499-1 php5</define-tag>
<define-tag report_date>2016-5-31</define-tag>
<define-tag secrefs>CVE-2015-8865 CVE-2015-8866 CVE-2015-8878 CVE-2015-8879 CVE-2016-4070 CVE-2016-4071 CVE-2016-4072 CVE-2016-4073 CVE-2016-4343 CVE-2016-4537 CVE-2016-4539 CVE-2016-4540 CVE-2016-4541 CVE-2016-4542 CVE-2016-4543 CVE-2016-4544</define-tag>
<define-tag packages>php5</define-tag>
<define-tag isvulnerable>yes</define-tag>
<define-tag fixed>yes</define-tag>
<define-tag fixed-section>no</define-tag>

#use wml::debian::security

