<define-tag pagetitle>DLA-699-1 xen</define-tag>
<define-tag report_date>2016-11-3</define-tag>
<define-tag secrefs>CVE-2016-7777</define-tag>
<define-tag packages>xen</define-tag>
<define-tag isvulnerable>yes</define-tag>
<define-tag fixed>yes</define-tag>
<define-tag fixed-section>no</define-tag>

#use wml::debian::security

