<define-tag pagetitle>DLA-716-1 tiff</define-tag>
<define-tag report_date>2016-11-22</define-tag>
<define-tag secrefs>CVE-2016-9273 CVE-2016-9297 CVE-2016-9532 Bug#844013 Bug#844226 Bug#844057</define-tag>
<define-tag packages>tiff</define-tag>
<define-tag isvulnerable>yes</define-tag>
<define-tag fixed>yes</define-tag>
<define-tag fixed-section>no</define-tag>

#use wml::debian::security

